v1_full_sim/adder_tb.vcd
$date
	Sat Feb  7 14:08:21 2026
$end
$version
	Icarus Verilog
$end
$timescale
	1ns
$end
$scope module adder_tb $end
$var wire 16 ! sum [15:0] $end
$var wire 1 " Cout $end
$var reg 16 # A [15:0] $end
$var reg 16 $ B [15:0] $end
$var reg 1 % Cin $end
$var reg 1 & F $end
$var reg 1 ' request $end
$scope module dut $end
$var wire 16 ( A [15:0] $end
$var wire 16 ) B [15:0] $end
$var wire 1 % Cin $end
$var wire 1 & F $end
$var wire 1 ' request $end
$var wire 16 * temp_sum [15:0] $end
$var wire 16 + sum [15:0] $end
$var wire 16 , P [15:0] $end
$var wire 1 " Cout $end
$scope module add_logic $end
$var wire 16 - A [15:0] $end
$var wire 16 . B [15:0] $end
$var wire 1 % Cin $end
$var wire 16 / sum [15:0] $end
$var wire 16 0 carry [15:0] $end
$var wire 16 1 P [15:0] $end
$var wire 1 " Cout $end
$scope begin adder[1] $end
$var parameter 2 2 i $end
$scope module u0 $end
$var wire 1 3 Cin $end
$var wire 1 4 Cout $end
$var wire 1 5 P $end
$var wire 1 6 a $end
$var wire 1 7 b $end
$var wire 1 8 naCin $end
$var wire 1 9 nab $end
$var wire 1 : nbCin $end
$var wire 1 ; s $end
$var parameter 32 < nand_d $end
$var parameter 32 = xor_d $end
$upscope $end
$upscope $end
$scope begin adder[2] $end
$var parameter 3 > i $end
$scope module u0 $end
$var wire 1 ? Cin $end
$var wire 1 @ Cout $end
$var wire 1 A P $end
$var wire 1 B a $end
$var wire 1 C b $end
$var wire 1 D naCin $end
$var wire 1 E nab $end
$var wire 1 F nbCin $end
$var wire 1 G s $end
$var parameter 32 H nand_d $end
$var parameter 32 I xor_d $end
$upscope $end
$upscope $end
$scope begin adder[3] $end
$var parameter 3 J i $end
$scope module u0 $end
$var wire 1 K Cin $end
$var wire 1 L Cout $end
$var wire 1 M P $end
$var wire 1 N a $end
$var wire 1 O b $end
$var wire 1 P naCin $end
$var wire 1 Q nab $end
$var wire 1 R nbCin $end
$var wire 1 S s $end
$var parameter 32 T nand_d $end
$var parameter 32 U xor_d $end
$upscope $end
$upscope $end
$scope begin adder[4] $end
$var parameter 4 V i $end
$scope module u0 $end
$var wire 1 W Cin $end
$var wire 1 X Cout $end
$var wire 1 Y P $end
$var wire 1 Z a $end
$var wire 1 [ b $end
$var wire 1 \ naCin $end
$var wire 1 ] nab $end
$var wire 1 ^ nbCin $end
$var wire 1 _ s $end
$var parameter 32 ` nand_d $end
$var parameter 32 a xor_d $end
$upscope $end
$upscope $end
$scope begin adder[5] $end
$var parameter 4 b i $end
$scope module u0 $end
$var wire 1 c Cin $end
$var wire 1 d Cout $end
$var wire 1 e P $end
$var wire 1 f a $end
$var wire 1 g b $end
$var wire 1 h naCin $end
$var wire 1 i nab $end
$var wire 1 j nbCin $end
$var wire 1 k s $end
$var parameter 32 l nand_d $end
$var parameter 32 m xor_d $end
$upscope $end
$upscope $end
$scope begin adder[6] $end
$var parameter 4 n i $end
$scope module u0 $end
$var wire 1 o Cin $end
$var wire 1 p Cout $end
$var wire 1 q P $end
$var wire 1 r a $end
$var wire 1 s b $end
$var wire 1 t naCin $end
$var wire 1 u nab $end
$var wire 1 v nbCin $end
$var wire 1 w s $end
$var parameter 32 x nand_d $end
$var parameter 32 y xor_d $end
$upscope $end
$upscope $end
$scope begin adder[7] $end
$var parameter 4 z i $end
$scope module u0 $end
$var wire 1 { Cin $end
$var wire 1 | Cout $end
$var wire 1 } P $end
$var wire 1 ~ a $end
$var wire 1 !" b $end
$var wire 1 "" naCin $end
$var wire 1 #" nab $end
$var wire 1 $" nbCin $end
$var wire 1 %" s $end
$var parameter 32 &" nand_d $end
$var parameter 32 '" xor_d $end
$upscope $end
$upscope $end
$scope begin adder[8] $end
$var parameter 5 (" i $end
$scope module u0 $end
$var wire 1 )" Cin $end
$var wire 1 *" Cout $end
$var wire 1 +" P $end
$var wire 1 ," a $end
$var wire 1 -" b $end
$var wire 1 ." naCin $end
$var wire 1 /" nab $end
$var wire 1 0" nbCin $end
$var wire 1 1" s $end
$var parameter 32 2" nand_d $end
$var parameter 32 3" xor_d $end
$upscope $end
$upscope $end
$scope begin adder[9] $end
$var parameter 5 4" i $end
$scope module u0 $end
$var wire 1 5" Cin $end
$var wire 1 6" Cout $end
$var wire 1 7" P $end
$var wire 1 8" a $end
$var wire 1 9" b $end
$var wire 1 :" naCin $end
$var wire 1 ;" nab $end
$var wire 1 <" nbCin $end
$var wire 1 =" s $end
$var parameter 32 >" nand_d $end
$var parameter 32 ?" xor_d $end
$upscope $end
$upscope $end
$scope begin adder[10] $end
$var parameter 5 @" i $end
$scope module u0 $end
$var wire 1 A" Cin $end
$var wire 1 B" Cout $end
$var wire 1 C" P $end
$var wire 1 D" a $end
$var wire 1 E" b $end
$var wire 1 F" naCin $end
$var wire 1 G" nab $end
$var wire 1 H" nbCin $end
$var wire 1 I" s $end
$var parameter 32 J" nand_d $end
$var parameter 32 K" xor_d $end
$upscope $end
$upscope $end
$scope begin adder[11] $end
$var parameter 5 L" i $end
$scope module u0 $end
$var wire 1 M" Cin $end
$var wire 1 N" Cout $end
$var wire 1 O" P $end
$var wire 1 P" a $end
$var wire 1 Q" b $end
$var wire 1 R" naCin $end
$var wire 1 S" nab $end
$var wire 1 T" nbCin $end
$var wire 1 U" s $end
$var parameter 32 V" nand_d $end
$var parameter 32 W" xor_d $end
$upscope $end
$upscope $end
$scope begin adder[12] $end
$var parameter 5 X" i $end
$scope module u0 $end
$var wire 1 Y" Cin $end
$var wire 1 Z" Cout $end
$var wire 1 [" P $end
$var wire 1 \" a $end
$var wire 1 ]" b $end
$var wire 1 ^" naCin $end
$var wire 1 _" nab $end
$var wire 1 `" nbCin $end
$var wire 1 a" s $end
$var parameter 32 b" nand_d $end
$var parameter 32 c" xor_d $end
$upscope $end
$upscope $end
$scope begin adder[13] $end
$var parameter 5 d" i $end
$scope module u0 $end
$var wire 1 e" Cin $end
$var wire 1 f" Cout $end
$var wire 1 g" P $end
$var wire 1 h" a $end
$var wire 1 i" b $end
$var wire 1 j" naCin $end
$var wire 1 k" nab $end
$var wire 1 l" nbCin $end
$var wire 1 m" s $end
$var parameter 32 n" nand_d $end
$var parameter 32 o" xor_d $end
$upscope $end
$upscope $end
$scope begin adder[14] $end
$var parameter 5 p" i $end
$scope module u0 $end
$var wire 1 q" Cin $end
$var wire 1 r" Cout $end
$var wire 1 s" P $end
$var wire 1 t" a $end
$var wire 1 u" b $end
$var wire 1 v" naCin $end
$var wire 1 w" nab $end
$var wire 1 x" nbCin $end
$var wire 1 y" s $end
$var parameter 32 z" nand_d $end
$var parameter 32 {" xor_d $end
$upscope $end
$upscope $end
$scope begin adder[15] $end
$var parameter 5 |" i $end
$scope module u0 $end
$var wire 1 }" Cin $end
$var wire 1 ~" Cout $end
$var wire 1 !# P $end
$var wire 1 "# a $end
$var wire 1 ## b $end
$var wire 1 $# naCin $end
$var wire 1 %# nab $end
$var wire 1 &# nbCin $end
$var wire 1 '# s $end
$var parameter 32 (# nand_d $end
$var parameter 32 )# xor_d $end
$upscope $end
$upscope $end
$scope module instance1 $end
$var wire 1 % Cin $end
$var wire 1 *# Cout $end
$var wire 1 +# P $end
$var wire 1 ,# a $end
$var wire 1 -# b $end
$var wire 1 .# naCin $end
$var wire 1 /# nab $end
$var wire 1 0# nbCin $end
$var wire 1 1# s $end
$var parameter 32 2# nand_d $end
$var parameter 32 3# xor_d $end
$upscope $end
$upscope $end
$scope module timing_logic $end
$var wire 1 & F $end
$var wire 16 4# P [15:0] $end
$var wire 1 5# a1fourths $end
$var wire 1 6# a2fourths $end
$var wire 1 7# a3fourths $end
$var wire 1 8# a4fourths $end
$var wire 1 ' request $end
$var wire 1 9# rlease $end
$var wire 1 :# s0 $end
$var wire 1 ;# s1 $end
$var wire 1 <# s2 $end
$var wire 16 =# sum [15:0] $end
$var wire 16 ># sum_out [15:0] $end
$var wire 1 ?# ready $end
$var wire 1 @# c2 $end
$var wire 1 A# c1 $end
$var wire 1 B# c0 $end
$var parameter 32 C# and_d $end
$var parameter 32 D# nand_d $end
$var parameter 32 E# nor_d $end
$scope module mux $end
$var wire 1 & F $end
$var wire 1 F# capture $end
$var wire 1 G# high $end
$var wire 1 H# low $end
$var wire 8 I# option [7:0] $end
$var wire 1 ?# out $end
$var wire 3 J# select [2:0] $end
$var wire 8 K# high_option [7:0] $end
$var parameter 32 L# and_d $end
$var parameter 32 M# nand_d $end
$var parameter 32 N# or_d $end
$upscope $end
$scope module stopwatch $end
$var wire 1 & F $end
$var wire 1 O# ac0 $end
$var wire 1 P# ac1 $end
$var wire 1 Q# ac2 $end
$var wire 1 B# c0 $end
$var wire 1 A# c1 $end
$var wire 1 @# c2 $end
$var wire 1 R# xc0 $end
$var wire 1 S# xc0o $end
$var wire 1 T# xc1 $end
$var wire 1 U# xc1o $end
$var wire 1 V# xc2 $end
$var wire 1 W# xc2o $end
$var parameter 32 X# and_d $end
$var parameter 32 Y# xor_d $end
$upscope $end
$scope module sum_buffer $end
$var wire 1 9# enable $end
$var wire 16 Z# signal [15:0] $end
$var wire 16 [# out [15:0] $end
$upscope $end
$upscope $end
$upscope $end
$upscope $end
$enddefinitions $end
$comment Show the parameter values. $end
$dumpall
b1 Y#
b1 X#
b1 N#
b1 M#
b1 L#
b1 E#
b1 D#
b1 C#
b1 3#
b1 2#
b1 )#
b1 (#
b1111 |"
b1 {"
b1 z"
b1110 p"
b1 o"
b1 n"
b1101 d"
b1 c"
b1 b"
b1100 X"
b1 W"
b1 V"
b1011 L"
b1 K"
b1 J"
b1010 @"
b1 ?"
b1 >"
b1001 4"
b1 3"
b1 2"
b1000 ("
b1 '"
b1 &"
b111 z
b1 y
b1 x
b110 n
b1 m
b1 l
b101 b
b1 a
b1 `
b100 V
b1 U
b1 T
b11 J
b1 I
b1 H
b10 >
b1 =
b1 <
b1 2
$end
#0
$dumpvars
bx [#
bx Z#
xW#
xV#
xU#
xT#
1S#
xR#
xQ#
xP#
xO#
bx K#
bx J#
bx I#
xH#
xG#
xF#
xB#
xA#
x@#
x?#
bx >#
bx =#
x<#
x;#
x:#
x9#
x8#
x7#
x6#
x5#
bx 4#
x1#
x0#
x/#
x.#
1-#
0,#
x+#
x*#
x'#
x&#
x%#
x$#
0##
1"#
x!#
x~"
x}"
xy"
xx"
xw"
xv"
1u"
0t"
xs"
xr"
xq"
xm"
xl"
xk"
xj"
0i"
1h"
xg"
xf"
xe"
xa"
x`"
x_"
x^"
1]"
0\"
x["
xZ"
xY"
xU"
xT"
xS"
xR"
0Q"
1P"
xO"
xN"
xM"
xI"
xH"
xG"
xF"
1E"
0D"
xC"
xB"
xA"
x="
x<"
x;"
x:"
09"
18"
x7"
x6"
x5"
x1"
x0"
x/"
x."
1-"
0,"
x+"
x*"
x)"
x%"
x$"
x#"
x""
0!"
1~
x}
x|
x{
xw
xv
xu
xt
1s
0r
xq
xp
xo
xk
xj
xi
xh
0g
1f
xe
xd
xc
x_
x^
x]
x\
1[
0Z
xY
xX
xW
xS
xR
xQ
xP
0O
1N
xM
xL
xK
xG
xF
xE
xD
1C
0B
xA
x@
x?
x;
x:
x9
x8
07
16
x5
x4
x3
bx 1
bx 0
bx /
b101010101010101 .
b1010101010101010 -
bx ,
bx +
bx *
b101010101010101 )
b1010101010101010 (
1'
1&
0%
b101010101010101 $
b1010101010101010 #
x"
bx !
$end
#1
b1111111111111111 ,
b1111111111111111 1
b1111111111111111 4#
bx000000x I#
1+#
1!#
1s"
1g"
1["
1O"
1C"
17"
1+"
1}
1q
1e
1Y
1M
1A
15
1:
1R
1j
1$"
1<"
1T"
1l"
1&#
19
1E
1D
1Q
1]
1\
1i
1u
1t
1#"
1/"
1."
1;"
1G"
1F"
1S"
1_"
1^"
1k"
1w"
1v"
1%#
1/#
07#
0@#
0A#
06#
0B#
0F#
10#
1.#
#2
03
bx111111x K#
bx1 *
bx1 /
bx1 =#
bx1 Z#
b10000000 I#
bx0 0
b0 J#
0<#
0;#
0:#
11#
0Q#
0P#
08#
0O#
0W#
0U#
15#
0*#
#3
bx11 *
bx11 /
bx11 =#
bx11 Z#
b11111111 K#
1;
18
1R#
0V#
0T#
#4
0?
bx00 0
0H#
0G#
04
#5
bx111 *
bx111 /
bx111 =#
bx111 Z#
1G
1F
0?#
#6
0K
bx000 0
bz !
bz +
bz >#
bz [#
0@
09#
#7
bx1111 *
bx1111 /
bx1111 =#
bx1111 Z#
1S
1P
#8
0W
bx0000 0
0L
0&
#9
bx11111 *
bx11111 /
bx11111 =#
bx11111 Z#
b11101100 I#
1_
1^
16#
1B#
#10
0c
bx00000 0
b1101100 I#
0X
1O#
1U#
05#
#11
bx111111 *
bx111111 /
bx111111 =#
bx111111 Z#
1k
1h
0R#
1T#
#12
0o
bx000000 0
b0 I#
0d
06#
0B#
1A#
#13
bx1111111 *
bx1111111 /
bx1111111 =#
bx1111111 Z#
1w
1v
0O#
0U#
1P#
#14
0{
bx0000000 0
0p
1R#
#15
bx11111111 *
bx11111111 /
bx11111111 =#
bx11111111 Z#
b1101100 I#
1%"
1""
16#
1B#
#16
0)"
bx00000000 0
0|
1O#
1W#
1U#
#17
bx111111111 *
bx111111111 /
bx111111111 =#
bx111111111 Z#
11"
10"
0R#
1V#
0T#
#18
05"
bx000000000 0
b10010 I#
0*"
06#
0B#
17#
1@#
0A#
#19
bx1111111111 *
bx1111111111 /
bx1111111111 =#
bx1111111111 Z#
1="
1:"
0O#
0U#
1Q#
0P#
0W#
#20
0A"
bx0000000000 0
06"
1R#
#21
bx11111111111 *
bx11111111111 /
bx11111111111 =#
bx11111111111 Z#
b1111110 I#
1I"
1H"
16#
1B#
#22
0M"
bx00000000000 0
0B"
1O#
1U#
#23
bx111111111111 *
bx111111111111 /
bx111111111111 =#
bx111111111111 Z#
1U"
1R"
0R#
1T#
#24
0Y"
bx000000000000 0
b10010 I#
0N"
06#
0B#
1A#
#25
bx1111111111111 *
bx1111111111111 /
bx1111111111111 =#
bx1111111111111 Z#
b10011 I#
1a"
1`"
0O#
0U#
1P#
18#
#26
0e"
b11111110 K#
bx0000000000000 0
0Z"
1R#
#27
bx11111111111111 *
bx11111111111111 /
bx11111111111111 =#
bx11111111111111 Z#
b1111111 I#
1H#
1m"
1j"
16#
1B#
#28
0q"
bx00000000000000 0
1?#
0f"
1O#
1W#
1U#
#29
bx111111111111111 *
bx111111111111111 /
bx111111111111111 =#
bx111111111111111 Z#
bx111111111111111 !
bx111111111111111 +
bx111111111111111 >#
bx111111111111111 [#
1y"
1x"
1F#
19#
0R#
0V#
0T#
#30
0}"
bx000000000000000 0
b1 I#
0r"
06#
0B#
07#
0@#
0A#
#31
b1111111111111111 !
b1111111111111111 +
b1111111111111111 >#
b1111111111111111 [#
b1111111111111111 *
b1111111111111111 /
b1111111111111111 =#
b1111111111111111 Z#
b10000000 I#
1'#
1$#
0O#
0U#
0Q#
0P#
0W#
15#
08#
#32
0"
b11111111 K#
b0 0
0~"
1R#
#33
b11101100 I#
0H#
16#
1B#
#34
b1101100 I#
1O#
1U#
05#
#35
0R#
1T#
#36
b0 I#
06#
0B#
1A#
#37
0O#
0U#
1P#
#38
1R#
#39
b1101100 I#
16#
1B#
#40
1O#
1W#
1U#
#41
0R#
1V#
0T#
#42
b10010 I#
06#
0B#
17#
1@#
0A#
#43
0O#
0U#
1Q#
0P#
0W#
#44
1R#
#45
b1111110 I#
16#
1B#
#46
1O#
1U#
#47
0R#
1T#
#48
b10010 I#
06#
0B#
1A#
#49
b10011 I#
0O#
0U#
1P#
18#
#50
b11111110 K#
1R#
#51
b1111111 I#
1H#
16#
1B#
#52
1O#
1W#
1U#
#53
0R#
0V#
0T#
#54
b1 I#
06#
0B#
07#
0@#
0A#
#55
b10000000 I#
0O#
0U#
0Q#
0P#
0W#
15#
08#
#56
b11111111 K#
1R#
#57
b11101100 I#
0H#
16#
1B#
#58
b1101100 I#
1O#
1U#
05#
#59
0R#
1T#
#60
b0 I#
06#
0B#
1A#
#61
0O#
0U#
1P#
#62
1R#
#63
b1101100 I#
16#
1B#
#64
1O#
1W#
1U#
#65
0R#
1V#
0T#
#66
b10010 I#
06#
0B#
17#
1@#
0A#
#67
0O#
0U#
1Q#
0P#
0W#
#68
1R#
#69
b1111110 I#
16#
1B#
#70
1O#
1U#
#71
0R#
1T#
#72
b10010 I#
06#
0B#
1A#
#73
b10011 I#
0O#
0U#
1P#
18#
#74
b11111110 K#
1R#
#75
b1111111 I#
1H#
16#
1B#
#76
1O#
1W#
1U#
#77
0R#
0V#
0T#
#78
b1 I#
06#
0B#
07#
0@#
0A#
#79
b10000000 I#
0O#
0U#
0Q#
0P#
0W#
15#
08#
#80
b11111111 K#
1R#
#81
b11101100 I#
0H#
16#
1B#
#82
b1101100 I#
1O#
1U#
05#
#83
0R#
1T#
#84
b0 I#
06#
0B#
1A#
#85
0O#
0U#
1P#
#86
1R#
#87
b1101100 I#
16#
1B#
#88
1O#
1W#
1U#
#89
0R#
1V#
0T#
#90
b10010 I#
06#
0B#
17#
1@#
0A#
#91
0O#
0U#
1Q#
0P#
0W#
#92
1R#
#93
b1111110 I#
16#
1B#
#94
1O#
1U#
#95
0R#
1T#
#96
b10010 I#
06#
0B#
1A#
#97
b10011 I#
0O#
0U#
1P#
18#
#98
b11111110 K#
1R#
#99
b1111111 I#
1H#
16#
1B#
#100
1O#
1W#
1U#
#101
0R#
0V#
0T#
#102
b1 I#
06#
0B#
07#
0@#
0A#
#103
b10000000 I#
0O#
0U#
0Q#
0P#
0W#
15#
08#
#104
b11111111 K#
1R#
#105
b11101100 I#
0H#
16#
1B#
#106
b1101100 I#
1O#
1U#
05#
#107
0R#
1T#
#108
b0 I#
06#
0B#
1A#
