waveforms/adder_tb.vcd
$date
	Sun Feb  8 12:47:41 2026
$end
$version
	Icarus Verilog
$end
$timescale
	1ns
$end
$scope module adder_tb $end
$var wire 16 ! sum [15:0] $end
$var wire 1 " Cout $end
$var reg 16 # A [15:0] $end
$var reg 16 $ B [15:0] $end
$var reg 1 % Cin $end
$var reg 1 & F $end
$var reg 1 ' request $end
$var integer 32 ( run_time [31:0] $end
$scope module dut $end
$var wire 16 ) A [15:0] $end
$var wire 16 * B [15:0] $end
$var wire 1 % Cin $end
$var wire 1 & F $end
$var wire 1 ' request $end
$var wire 16 + temp_sum [15:0] $end
$var wire 16 , sum [15:0] $end
$var wire 16 - P [15:0] $end
$var wire 1 " Cout $end
$scope module add_logic $end
$var wire 16 . A [15:0] $end
$var wire 16 / B [15:0] $end
$var wire 1 % Cin $end
$var wire 16 0 sum [15:0] $end
$var wire 16 1 carry [15:0] $end
$var wire 16 2 P [15:0] $end
$var wire 1 " Cout $end
$scope begin adder[1] $end
$var parameter 2 3 i $end
$scope module u0 $end
$var wire 1 4 Cin $end
$var wire 1 5 Cout $end
$var wire 1 6 P $end
$var wire 1 7 a $end
$var wire 1 8 b $end
$var wire 1 9 naCin $end
$var wire 1 : nab $end
$var wire 1 ; nbCin $end
$var wire 1 < s $end
$var parameter 32 = nand_d $end
$var parameter 32 > xor_d $end
$upscope $end
$upscope $end
$scope begin adder[2] $end
$var parameter 3 ? i $end
$scope module u0 $end
$var wire 1 @ Cin $end
$var wire 1 A Cout $end
$var wire 1 B P $end
$var wire 1 C a $end
$var wire 1 D b $end
$var wire 1 E naCin $end
$var wire 1 F nab $end
$var wire 1 G nbCin $end
$var wire 1 H s $end
$var parameter 32 I nand_d $end
$var parameter 32 J xor_d $end
$upscope $end
$upscope $end
$scope begin adder[3] $end
$var parameter 3 K i $end
$scope module u0 $end
$var wire 1 L Cin $end
$var wire 1 M Cout $end
$var wire 1 N P $end
$var wire 1 O a $end
$var wire 1 P b $end
$var wire 1 Q naCin $end
$var wire 1 R nab $end
$var wire 1 S nbCin $end
$var wire 1 T s $end
$var parameter 32 U nand_d $end
$var parameter 32 V xor_d $end
$upscope $end
$upscope $end
$scope begin adder[4] $end
$var parameter 4 W i $end
$scope module u0 $end
$var wire 1 X Cin $end
$var wire 1 Y Cout $end
$var wire 1 Z P $end
$var wire 1 [ a $end
$var wire 1 \ b $end
$var wire 1 ] naCin $end
$var wire 1 ^ nab $end
$var wire 1 _ nbCin $end
$var wire 1 ` s $end
$var parameter 32 a nand_d $end
$var parameter 32 b xor_d $end
$upscope $end
$upscope $end
$scope begin adder[5] $end
$var parameter 4 c i $end
$scope module u0 $end
$var wire 1 d Cin $end
$var wire 1 e Cout $end
$var wire 1 f P $end
$var wire 1 g a $end
$var wire 1 h b $end
$var wire 1 i naCin $end
$var wire 1 j nab $end
$var wire 1 k nbCin $end
$var wire 1 l s $end
$var parameter 32 m nand_d $end
$var parameter 32 n xor_d $end
$upscope $end
$upscope $end
$scope begin adder[6] $end
$var parameter 4 o i $end
$scope module u0 $end
$var wire 1 p Cin $end
$var wire 1 q Cout $end
$var wire 1 r P $end
$var wire 1 s a $end
$var wire 1 t b $end
$var wire 1 u naCin $end
$var wire 1 v nab $end
$var wire 1 w nbCin $end
$var wire 1 x s $end
$var parameter 32 y nand_d $end
$var parameter 32 z xor_d $end
$upscope $end
$upscope $end
$scope begin adder[7] $end
$var parameter 4 { i $end
$scope module u0 $end
$var wire 1 | Cin $end
$var wire 1 } Cout $end
$var wire 1 ~ P $end
$var wire 1 !" a $end
$var wire 1 "" b $end
$var wire 1 #" naCin $end
$var wire 1 $" nab $end
$var wire 1 %" nbCin $end
$var wire 1 &" s $end
$var parameter 32 '" nand_d $end
$var parameter 32 (" xor_d $end
$upscope $end
$upscope $end
$scope begin adder[8] $end
$var parameter 5 )" i $end
$scope module u0 $end
$var wire 1 *" Cin $end
$var wire 1 +" Cout $end
$var wire 1 ," P $end
$var wire 1 -" a $end
$var wire 1 ." b $end
$var wire 1 /" naCin $end
$var wire 1 0" nab $end
$var wire 1 1" nbCin $end
$var wire 1 2" s $end
$var parameter 32 3" nand_d $end
$var parameter 32 4" xor_d $end
$upscope $end
$upscope $end
$scope begin adder[9] $end
$var parameter 5 5" i $end
$scope module u0 $end
$var wire 1 6" Cin $end
$var wire 1 7" Cout $end
$var wire 1 8" P $end
$var wire 1 9" a $end
$var wire 1 :" b $end
$var wire 1 ;" naCin $end
$var wire 1 <" nab $end
$var wire 1 =" nbCin $end
$var wire 1 >" s $end
$var parameter 32 ?" nand_d $end
$var parameter 32 @" xor_d $end
$upscope $end
$upscope $end
$scope begin adder[10] $end
$var parameter 5 A" i $end
$scope module u0 $end
$var wire 1 B" Cin $end
$var wire 1 C" Cout $end
$var wire 1 D" P $end
$var wire 1 E" a $end
$var wire 1 F" b $end
$var wire 1 G" naCin $end
$var wire 1 H" nab $end
$var wire 1 I" nbCin $end
$var wire 1 J" s $end
$var parameter 32 K" nand_d $end
$var parameter 32 L" xor_d $end
$upscope $end
$upscope $end
$scope begin adder[11] $end
$var parameter 5 M" i $end
$scope module u0 $end
$var wire 1 N" Cin $end
$var wire 1 O" Cout $end
$var wire 1 P" P $end
$var wire 1 Q" a $end
$var wire 1 R" b $end
$var wire 1 S" naCin $end
$var wire 1 T" nab $end
$var wire 1 U" nbCin $end
$var wire 1 V" s $end
$var parameter 32 W" nand_d $end
$var parameter 32 X" xor_d $end
$upscope $end
$upscope $end
$scope begin adder[12] $end
$var parameter 5 Y" i $end
$scope module u0 $end
$var wire 1 Z" Cin $end
$var wire 1 [" Cout $end
$var wire 1 \" P $end
$var wire 1 ]" a $end
$var wire 1 ^" b $end
$var wire 1 _" naCin $end
$var wire 1 `" nab $end
$var wire 1 a" nbCin $end
$var wire 1 b" s $end
$var parameter 32 c" nand_d $end
$var parameter 32 d" xor_d $end
$upscope $end
$upscope $end
$scope begin adder[13] $end
$var parameter 5 e" i $end
$scope module u0 $end
$var wire 1 f" Cin $end
$var wire 1 g" Cout $end
$var wire 1 h" P $end
$var wire 1 i" a $end
$var wire 1 j" b $end
$var wire 1 k" naCin $end
$var wire 1 l" nab $end
$var wire 1 m" nbCin $end
$var wire 1 n" s $end
$var parameter 32 o" nand_d $end
$var parameter 32 p" xor_d $end
$upscope $end
$upscope $end
$scope begin adder[14] $end
$var parameter 5 q" i $end
$scope module u0 $end
$var wire 1 r" Cin $end
$var wire 1 s" Cout $end
$var wire 1 t" P $end
$var wire 1 u" a $end
$var wire 1 v" b $end
$var wire 1 w" naCin $end
$var wire 1 x" nab $end
$var wire 1 y" nbCin $end
$var wire 1 z" s $end
$var parameter 32 {" nand_d $end
$var parameter 32 |" xor_d $end
$upscope $end
$upscope $end
$scope begin adder[15] $end
$var parameter 5 }" i $end
$scope module u0 $end
$var wire 1 ~" Cin $end
$var wire 1 !# Cout $end
$var wire 1 "# P $end
$var wire 1 ## a $end
$var wire 1 $# b $end
$var wire 1 %# naCin $end
$var wire 1 &# nab $end
$var wire 1 '# nbCin $end
$var wire 1 (# s $end
$var parameter 32 )# nand_d $end
$var parameter 32 *# xor_d $end
$upscope $end
$upscope $end
$scope module instance1 $end
$var wire 1 % Cin $end
$var wire 1 +# Cout $end
$var wire 1 ,# P $end
$var wire 1 -# a $end
$var wire 1 .# b $end
$var wire 1 /# naCin $end
$var wire 1 0# nab $end
$var wire 1 1# nbCin $end
$var wire 1 2# s $end
$var parameter 32 3# nand_d $end
$var parameter 32 4# xor_d $end
$upscope $end
$upscope $end
$scope module timing_logic $end
$var wire 1 & F $end
$var wire 16 5# P [15:0] $end
$var wire 1 6# a1fourths $end
$var wire 1 7# a2fourths $end
$var wire 1 8# a3fourths $end
$var wire 1 9# a4fourths $end
$var wire 1 ' request $end
$var wire 1 :# rlease $end
$var wire 1 ;# s0 $end
$var wire 1 <# s1 $end
$var wire 1 =# s2 $end
$var wire 16 ># sum [15:0] $end
$var wire 16 ?# sum_out [15:0] $end
$var wire 1 @# ready $end
$var wire 1 A# c2 $end
$var wire 1 B# c1 $end
$var wire 1 C# c0 $end
$var parameter 32 D# and_d $end
$var parameter 32 E# nand_d $end
$var parameter 32 F# nor_d $end
$scope module mux $end
$var wire 1 & F $end
$var wire 1 G# capture $end
$var wire 1 H# high $end
$var wire 1 I# low $end
$var wire 8 J# option [7:0] $end
$var wire 1 @# out $end
$var wire 3 K# select [2:0] $end
$var wire 8 L# high_option [7:0] $end
$var parameter 32 M# and_d $end
$var parameter 32 N# nand_d $end
$var parameter 32 O# or_d $end
$upscope $end
$scope module stopwatch $end
$var wire 1 & F $end
$var wire 1 P# ac0 $end
$var wire 1 Q# ac1 $end
$var wire 1 R# ac2 $end
$var wire 1 C# c0 $end
$var wire 1 B# c1 $end
$var wire 1 A# c2 $end
$var wire 1 S# xc0 $end
$var wire 1 T# xc0o $end
$var wire 1 U# xc1 $end
$var wire 1 V# xc1o $end
$var wire 1 W# xc2 $end
$var wire 1 X# xc2o $end
$var parameter 32 Y# and_d $end
$var parameter 32 Z# xor_d $end
$upscope $end
$scope module sum_buffer $end
$var wire 1 :# enable $end
$var wire 16 [# signal [15:0] $end
$var wire 16 \# out [15:0] $end
$upscope $end
$upscope $end
$upscope $end
$upscope $end
$enddefinitions $end
$comment Show the parameter values. $end
$dumpall
b1 Z#
b1 Y#
b1 O#
b1 N#
b1 M#
b1 F#
b1 E#
b1 D#
b1 4#
b1 3#
b1 *#
b1 )#
b1111 }"
b1 |"
b1 {"
b1110 q"
b1 p"
b1 o"
b1101 e"
b1 d"
b1 c"
b1100 Y"
b1 X"
b1 W"
b1011 M"
b1 L"
b1 K"
b1010 A"
b1 @"
b1 ?"
b1001 5"
b1 4"
b1 3"
b1000 )"
b1 ("
b1 '"
b111 {
b1 z
b1 y
b110 o
b1 n
b1 m
b101 c
b1 b
b1 a
b100 W
b1 V
b1 U
b11 K
b1 J
b1 I
b10 ?
b1 >
b1 =
b1 3
$end
#0
$dumpvars
bx \#
bx [#
xX#
xW#
xV#
xU#
1T#
xS#
xR#
xQ#
xP#
bx L#
bx K#
bx J#
xI#
xH#
xG#
xC#
xB#
xA#
x@#
bx ?#
bx >#
x=#
x<#
x;#
x:#
x9#
x8#
x7#
x6#
bx 5#
x2#
x1#
x0#
x/#
1.#
0-#
x,#
x+#
x(#
x'#
x&#
x%#
0$#
0##
x"#
x!#
x~"
xz"
xy"
xx"
xw"
1v"
0u"
xt"
xs"
xr"
xn"
xm"
xl"
xk"
0j"
1i"
xh"
xg"
xf"
xb"
xa"
x`"
x_"
1^"
1]"
x\"
x["
xZ"
xV"
xU"
xT"
xS"
1R"
0Q"
xP"
xO"
xN"
xJ"
xI"
xH"
xG"
1F"
1E"
xD"
xC"
xB"
x>"
x="
x<"
x;"
1:"
09"
x8"
x7"
x6"
x2"
x1"
x0"
x/"
0."
1-"
x,"
x+"
x*"
x&"
x%"
x$"
x#"
1""
0!"
x~
x}
x|
xx
xw
xv
xu
0t
0s
xr
xq
xp
xl
xk
xj
xi
0h
1g
xf
xe
xd
x`
x_
x^
x]
0\
0[
xZ
xY
xX
xT
xS
xR
xQ
0P
0O
xN
xM
xL
xH
xG
xF
xE
0D
1C
xB
xA
x@
x<
x;
x:
x9
08
07
x6
x5
x4
bx 2
bx 1
bx 0
b101111010000001 /
b11010100100100 .
bx -
bx ,
bx +
b101111010000001 *
b11010100100100 )
b0 (
1'
1&
1%
b101111010000001 $
b11010100100100 #
x"
bx !
$end
#1
b110101110100101 -
b110101110100101 2
b110101110100101 5#
bx000000x J#
1;
1G
1S
1_
1k
1w
11"
1m"
1'#
01#
06
1:
19
1B
1F
0N
1R
1Q
0Z
1^
1]
1f
1j
0r
1v
1u
1~
1$"
1#"
1,"
10"
18"
1<"
1;"
0D"
0H"
1P"
1T"
1S"
0\"
0`"
1h"
1l"
1t"
1x"
1w"
0"#
1&#
1%#
1,#
10#
1/#
0G#
07#
0C#
0B#
08#
0A#
b1 (
#2
0"
1f"
1N"
0|
0d
0X
0@
14
bx111111x L#
bx0 +
bx0 0
bx0 >#
bx0 [#
b0xx1x1xxx0x00x01 1
b10000000 J#
b101 K#
1=#
0<#
1;#
05
0M
0Y
0q
1C"
1["
0!#
02#
1+#
0P#
0V#
0Q#
0X#
0R#
16#
09#
b10 (
#3
bx0x0xxx1x10x110 +
bx0x0xxx1x10x110 0
bx0x0xxx1x10x110 >#
bx0x0xxx1x10x110 [#
b11111111 L#
0n"
0k"
0V"
0U"
1&"
1%"
1l
1i
0`
1H
1E
1<
1S#
0U#
0W#
b11 (
#4
1r"
1Z"
0*"
0p
0L
b0x1111xx00000001 1
0I#
0H#
1g"
1O"
0}
0e
0A
b100 (
#5
bx0010xx110100110 +
bx0010xx110100110 0
bx0010xx110100110 >#
bx0010xx110100110 [#
0z"
0y"
1b"
0a"
0_"
12"
1/"
0x
0T
0@#
b101 (
#6
1~"
06"
b11111x000000001 1
bz !
bz ,
bz ?#
bz \#
1s"
0+"
0:#
b110 (
#7
b10010x1110100110 +
b10010x1110100110 0
b10010x1110100110 >#
b10010x1110100110 [#
1(#
1>"
1="
b111 (
#8
0B"
b111110000000001 1
07"
b1000 (
0&
#9
b1001001110100110 +
b1001001110100110 0
b1001001110100110 >#
b1001001110100110 [#
b11101100 J#
0J"
1I"
1G"
17#
1C#
b1001 (
#10
b11011111 L#
b1101100 J#
1P#
1V#
06#
b1010 (
#11
1H#
0S#
1U#
b1011 (
#12
b0 J#
1@#
07#
0C#
1B#
b1100 (
#13
b11111111 L#
b1001001110100110 !
b1001001110100110 ,
b1001001110100110 ?#
b1001001110100110 \#
1G#
1:#
0P#
0V#
1Q#
b1101 (
#14
0H#
1S#
#15
b1101100 J#
17#
1C#
#16
b11011111 L#
1P#
1X#
1V#
#17
1H#
0S#
1W#
0U#
#18
b10010 J#
07#
0C#
18#
1A#
0B#
#19
b11111111 L#
0P#
0V#
1R#
0Q#
0X#
#20
0H#
1S#
#21
b1111110 J#
17#
1C#
#22
b11011111 L#
1P#
1V#
#23
1H#
0S#
1U#
#24
b10010 J#
07#
0C#
1B#
#25
b11111111 L#
b10011 J#
0P#
0V#
1Q#
19#
#26
0H#
1S#
#27
b1111111 J#
17#
1C#
#28
b11011111 L#
1P#
1X#
1V#
#29
1H#
0S#
0W#
0U#
#30
b1 J#
07#
0C#
08#
0A#
0B#
#31
b11111111 L#
b10000000 J#
0P#
0V#
0R#
0Q#
0X#
16#
09#
#32
0H#
1S#
#33
b11101100 J#
1D
1P
0""
1."
0F"
1j"
17
0C
1s
0-"
19"
0i"
1u"
1-#
17#
1C#
b1110 (
b111101100001101 $
b111101100001101 *
b111101100001101 /
b101011001100011 #
b101011001100011 )
b101011001100011 .
1&
#34
b11011111 L#
b10110101101110 -
b10110101101110 2
b10110101101110 5#
b0 J#
1N
0~
1D"
1H"
0m"
16
09
1r
08"
0<"
1k"
0t"
0x"
0w"
0,#
00#
0/#
0G#
07#
0C#
1P#
1V#
06#
b1111 (
#35
0N"
1B"
1@
b1101010101101101 !
b1101010101101101 ,
b1101010101101101 ?#
b1101010101101101 \#
b11111111 L#
b111101000000011 1
b1101010101101101 +
b1101010101101101 0
b1101010101101101 >#
b1101010101101101 [#
b10000000 J#
b111 K#
1H#
1<#
1T
0&"
1J"
0C"
0<
15
1x
0>"
17"
1z"
12#
0@#
0P#
0V#
16#
0S#
1U#
b10000 (
#36
b1101100101101001 +
b1101100101101001 0
b1101100101101001 >#
b1101100101101001 [#
b1111111 L#
bz !
bz ,
bz ?#
bz \#
0H#
1V"
1U"
0J"
0G"
0H
0G
1@#
0:#
1S#
0U#
b10001 (
#37
0Z"
1N"
1L
b111011000000111 1
b1101100101101001 !
b1101100101101001 ,
b1101100101101001 ?#
b1101100101101001 \#
1H#
0@#
0O"
1C"
1A
1:#
b10010 (
#38
b1100000101100001 +
b1100000101100001 0
b1100000101100001 >#
b1100000101100001 [#
bz !
bz ,
bz ?#
bz \#
0b"
1a"
1_"
0V"
0U"
0T
0S
1@#
0:#
b10011 (
#39
1Z"
1X
b111111000001111 1
b1100000101100001 !
b1100000101100001 ,
b1100000101100001 ?#
b1100000101100001 \#
1O"
1M
1:#
b10100 (
#40
b1101000101110001 !
b1101000101110001 ,
b1101000101110001 ?#
b1101000101110001 \#
b1101000101110001 +
b1101000101110001 0
b1101000101110001 >#
b1101000101110001 [#
1b"
0a"
0_"
1`
b10101 (
#41
0&
#42
b11101100 J#
1G#
17#
1C#
#43
b1101100 J#
1P#
1V#
06#
#44
b11111111 L#
0S#
1U#
#45
b0 J#
0H#
07#
0C#
1B#
#46
0P#
0V#
1Q#
#47
1S#
#48
b1101100 J#
17#
1C#
#49
1P#
1X#
1V#
#50
0S#
1W#
0U#
#51
b10010 J#
07#
0C#
18#
1A#
0B#
#52
0P#
0V#
1R#
0Q#
0X#
#53
1S#
#54
b1111110 J#
17#
1C#
#55
1P#
1V#
#56
0S#
1U#
#57
b10010 J#
07#
0C#
1B#
#58
b10011 J#
0P#
0V#
1Q#
19#
#59
1S#
#60
b1111111 J#
17#
1C#
#61
1P#
1X#
1V#
#62
0S#
0W#
0U#
#63
b1 J#
07#
0C#
08#
0A#
0B#
#64
b10000000 J#
0P#
0V#
0R#
0Q#
0X#
16#
09#
#65
b1111111 L#
1S#
#66
b11101100 J#
18
0D
0P
1\
0."
0R"
0j"
0.#
07
1C
09"
0]"
0u"
1##
1H#
17#
1C#
b10110 (
b101001000010010 $
b101001000010010 *
b101001000010010 /
b1000010001100101 #
b1000010001100101 )
b1000010001100101 .
1&
#67
b1101011001110111 -
b1101011001110111 2
b1101011001110111 5#
b0 J#
0;
1G
0N
1S
1Z
0_
0,"
0P"
1U"
0h"
1m"
1,#
11#
10#
19
0E
18"
1<"
1\"
1`"
1_"
1t"
1x"
1w"
1"#
0%#
0G#
07#
0C#
1P#
1V#
06#
b10111 (
#68
b10101001101000 !
b10101001101000 ,
b10101001101000 ?#
b10101001101000 \#
1"
0r"
0Z"
0B"
1d
0X
b11111111 L#
b10101001101000 +
b10101001101000 0
b10101001101000 >#
b10101001101000 [#
b1101010000010111 1
b10000000 J#
1T
0M
0`
1Y
02"
1V"
0O"
1n"
0g"
02#
1>"
07"
0b"
0z"
0(#
1!#
0P#
0V#
16#
0S#
1U#
b11000 (
#69
b111111001011000 !
b111111001011000 ,
b111111001011000 ?#
b111111001011000 \#
b111111001011000 +
b111111001011000 0
b111111001011000 >#
b111111001011000 [#
b1111111 L#
0H#
1z"
1y"
1b"
1a"
1J"
1G"
0l
0i
1`
1_
1S#
0U#
b11001 (
#70
0~"
0f"
0N"
1p
0d
b1000000000100111 1
1H#
0@#
0s"
0["
0C"
1e
0Y
b11010 (
#71
b1101011000111000 +
b1101011000111000 0
b1101011000111000 >#
b1101011000111000 [#
bz !
bz ,
bz ?#
bz \#
1(#
1%#
0n"
0V"
0x
0u
1l
1i
1@#
0:#
b11011 (
#72
0"
1|
0p
b1000111 1
b1101011000111000 !
b1101011000111000 ,
b1101011000111000 ?#
b1101011000111000 \#
0!#
1q
0e
1:#
b11100 (
#73
b1101011011111000 !
b1101011011111000 ,
b1101011011111000 ?#
b1101011011111000 \#
b1101011011111000 +
b1101011011111000 0
b1101011011111000 >#
b1101011011111000 [#
1&"
1x
1u
b11101 (
#74
0|
b111 1
0q
0&
#75
b1101011001111000 !
b1101011001111000 ,
b1101011001111000 ?#
b1101011001111000 \#
b1101011001111000 +
b1101011001111000 0
b1101011001111000 >#
b1101011001111000 [#
b11101100 J#
0&"
1G#
17#
1C#
#76
b1101100 J#
1P#
1V#
06#
#77
b11111111 L#
0S#
1U#
#78
b0 J#
0H#
07#
0C#
1B#
#79
0P#
0V#
1Q#
#80
1S#
#81
b1101100 J#
17#
1C#
#82
1P#
1X#
1V#
#83
0S#
1W#
0U#
#84
b10010 J#
07#
0C#
18#
1A#
0B#
#85
0P#
0V#
1R#
0Q#
0X#
#86
1S#
#87
b1111110 J#
17#
1C#
#88
1P#
1V#
#89
0S#
1U#
#90
b10010 J#
07#
0C#
1B#
#91
b10011 J#
0P#
0V#
1Q#
19#
#92
1S#
#93
b1111111 J#
17#
1C#
#94
1P#
1X#
1V#
#95
0S#
0W#
0U#
#96
b1 J#
07#
0C#
08#
0A#
0B#
#97
b10000000 J#
0P#
0V#
0R#
0Q#
0X#
16#
09#
#98
b1111111 L#
1S#
#99
b11101100 J#
1D
1h
1t
1."
0:"
1j"
1$#
1O
0g
0s
1-"
1Q"
1u"
1H#
17#
1C#
b11110 (
b1111000101110110 $
b1111000101110110 *
b1111000101110110 /
b1100110100001101 #
b1100110100001101 )
b1100110100001101 .
1&
#100
b11110001111011 -
b11110001111011 2
b11110001111011 5#
b0 J#
0B
0G
0F
08"
1h"
0"#
0&#
1N
0Q
00"
1P"
0t"
0x"
0G#
07#
0C#
1P#
1V#
06#
b11111 (
#101
b11110001110100 !
b11110001110100 ,
b11110001110100 ?#
b11110001110100 \#
1"
1~"
16"
1X
b11111111 L#
b11110001110100 +
b11110001110100 0
b11110001110100 >#
b11110001110100 [#
b1100000100001111 1
b10000000 J#
b10 K#
0=#
0;#
1H
0>"
1n"
0(#
1!#
0T
1M
1+"
1V"
0z"
1s"
0P#
0V#
16#
0S#
1U#
b100000 (
#102
b1011111001100100 !
b1011111001100100 ,
b1011111001100100 ?#
b1011111001100100 \#
b1011111001100100 +
b1011111001100100 0
b1011111001100100 >#
b1011111001100100 [#
0H#
1(#
0'#
0%#
1>"
0`
0_
1S#
0U#
b100001 (
#103
1d
b1100000100011111 1
0@#
1Y
b100010 (
#104
b1011111001000100 +
b1011111001000100 0
b1011111001000100 >#
b1011111001000100 [#
bz !
bz ,
bz ?#
bz \#
0l
0k
0:#
b100011 (
#105
1p
b1100000100111111 1
1e
b100100 (
#106
b1011111000000100 +
b1011111000000100 0
b1011111000000100 >#
b1011111000000100 [#
0x
0w
b100101 (
#107
1|
b1100000101111111 1
1q
b100110 (
0&
#108
b1011111010000100 +
b1011111010000100 0
b1011111010000100 >#
b1011111010000100 [#
b11101100 J#
1&"
17#
1C#
b100111 (
#109
b11111011 L#
b1101100 J#
1P#
1V#
06#
b101000 (
#110
1I#
0S#
1U#
b101001 (
#111
b0 J#
1@#
07#
0C#
1B#
b101010 (
#112
b11111111 L#
b1011111010000100 !
b1011111010000100 ,
b1011111010000100 ?#
b1011111010000100 \#
1G#
1:#
0P#
0V#
1Q#
b101011 (
#113
0I#
1S#
#114
b1101100 J#
17#
1C#
#115
b11111011 L#
1P#
1X#
1V#
#116
1I#
0S#
1W#
0U#
#117
b10010 J#
07#
0C#
18#
1A#
0B#
#118
b11111111 L#
0P#
0V#
1R#
0Q#
0X#
#119
0I#
1S#
#120
b1111110 J#
17#
1C#
#121
b11111011 L#
1P#
1V#
#122
1I#
0S#
1U#
#123
b10010 J#
07#
0C#
1B#
#124
b11111111 L#
b10011 J#
0P#
0V#
1Q#
19#
#125
0I#
1S#
#126
b1111111 J#
17#
1C#
#127
b11111011 L#
1P#
1X#
1V#
#128
1I#
0S#
0W#
0U#
#129
b1 J#
07#
0C#
08#
0A#
0B#
#130
b11111111 L#
b10000000 J#
0P#
0V#
0R#
0Q#
0X#
16#
09#
#131
0I#
1S#
#132
b11101100 J#
08
1P
0\
0h
0t
1""
1:"
1F"
1g
1s
1!"
19"
0Q"
1]"
0##
17#
1C#
b101100 (
b1111011110001100 $
b1111011110001100 *
b1111011110001100 /
b101011111101101 #
b101011111101101 )
b101011111101101 .
1&
#133
b11111011 L#
b1010000001100001 -
b1010000001100001 2
b1010000001100001 5#
b0 J#
06
1;
0N
0S
0R
0Z
1_
1k
1w
0%"
0="
0D"
0H"
0i
0u
0$"
0#"
0<"
0;"
0P"
0\"
0`"
1"#
1&#
1%#
0G#
07#
0C#
1P#
1V#
06#
b101101 (
#134
1f"
1N"
1B"
1*"
0d
0@
b10001010011110 !
b10001010011110 ,
b10001010011110 ?#
b10001010011110 \#
b11111111 L#
b1101011111101101 1
b10001010011110 +
b10001010011110 0
b10001010011110 >#
b10001010011110 [#
b10000000 J#
b111 K#
1I#
1=#
1;#
1<
05
1T
1`
0Y
0J"
1C"
1}
17"
0V"
0b"
1["
0(#
0@#
0P#
0V#
16#
0S#
1U#
b101110 (
#135
b111110111010 +
b111110111010 0
b111110111010 >#
b111110111010 [#
b1111111 L#
bz !
bz ,
bz ?#
bz \#
0I#
0n"
0m"
1V"
1J"
0I"
0G"
12"
01"
0/"
1l
1i
0H
1G
1E
1@#
0:#
1S#
0U#
b101111 (
#136
1r"
0p
b1111011111001101 1
b111110111010 !
b111110111010 ,
b111110111010 ?#
b111110111010 \#
1H#
0@#
1g"
0e
1:#
b110000 (
#137
b100111111111010 +
b100111111111010 0
b100111111111010 >#
b100111111111010 [#
bz !
bz ,
bz ?#
bz \#
1z"
0y"
0w"
1x
1u
1@#
0:#
b110001 (
#138
0|
b1111011110001101 1
b100111111111010 !
b100111111111010 ,
b100111111111010 ?#
b100111111111010 \#
0q
1:#
b110010 (
#139
b100111101111010 !
b100111101111010 ,
b100111101111010 ?#
b100111101111010 \#
b100111101111010 +
b100111101111010 0
b100111101111010 >#
b100111101111010 [#
0&"
1%"
1#"
b110011 (
#140
0&
#141
b11101100 J#
1G#
17#
1C#
#142
b1101100 J#
1P#
1V#
06#
#143
b11111111 L#
0S#
1U#
#144
b0 J#
0H#
07#
0C#
1B#
#145
0P#
0V#
1Q#
#146
1S#
#147
b1101100 J#
17#
1C#
#148
1P#
1X#
1V#
#149
0S#
1W#
0U#
#150
b10010 J#
07#
0C#
18#
1A#
0B#
#151
0P#
0V#
1R#
0Q#
0X#
#152
1S#
#153
b1111110 J#
17#
1C#
#154
1P#
1V#
#155
0S#
1U#
#156
b10010 J#
07#
0C#
1B#
#157
b10011 J#
0P#
0V#
1Q#
19#
#158
1S#
#159
b1111111 J#
17#
1C#
#160
1P#
1X#
1V#
#161
0S#
0W#
0U#
#162
b1 J#
07#
0C#
08#
0A#
0B#
#163
b10000000 J#
0P#
0V#
0R#
0Q#
0X#
16#
09#
#164
b1111111 L#
1S#
#165
b11101100 J#
0P
1t
0."
0:"
0^"
0j"
0v"
1.#
17
0O
0g
0-"
09"
0]"
1i"
0u"
0-#
1H#
17#
1C#
b110100 (
0%
b1000010011000101 $
b1000010011000101 *
b1000010011000101 /
b10010011000110 #
b10010011000110 )
b10010011000110 .
1&
#166
b100111101111011 !
b100111101111011 ,
b100111101111011 ?#
b100111101111011 \#
b1010000000000011 -
b1010000000000011 2
b1010000000000011 5#
b0 J#
b100111101111011 +
b100111101111011 0
b100111101111011 >#
b100111101111011 [#
1S
0r
0v
11"
1="
1m"
1y"
16
09
1R
1Q
0f
10"
1/"
1<"
1;"
1`"
0k"
1x"
1w"
0G#
07#
0C#
1P#
1V#
06#
12#
1/#
b110101 (
#167
b100111100011001 !
b100111100011001 ,
b100111100011001 ?#
b100111100011001 \#
0~"
0f"
0B"
06"
1|
0X
1@
04
b11111111 L#
b100111100011001 +
b100111100011001 0
b100111100011001 >#
b100111100011001 [#
b10000000 J#
b1010010011000110 1
0x
1q
0<
15
0M
0l
0+"
07"
0["
0s"
0P#
0V#
16#
0S#
1U#
0+#
b110110 (
#168
b1110100110001111 !
b1110100110001111 ,
b1110100110001111 ?#
b1110100110001111 \#
b1111111 L#
b1110100110001111 +
b1110100110001111 0
b1110100110001111 >#
b1110100110001111 [#
0H#
1(#
1'#
1n"
1k"
0J"
1I"
1G"
0>"
1&"
0%"
0#"
0`
1H
0G
0E
1<
19
1S#
0U#
b110111 (
#169
0"
0r"
0@
b10011000100 1
1H#
0@#
0!#
0g"
05
b111000 (
#170
b1010100110001011 +
b1010100110001011 0
b1010100110001011 >#
b1010100110001011 [#
bz !
bz ,
bz ?#
bz \#
0z"
0H
1G
1E
1@#
0:#
b111001 (
#171
b1010100110001011 !
b1010100110001011 ,
b1010100110001011 ?#
b1010100110001011 \#
1:#
b111010 (
#172
b111011 (
#173
0&
#174
b11101100 J#
1G#
17#
1C#
#175
b1101100 J#
1P#
1V#
06#
#176
b11111111 L#
0S#
1U#
#177
b0 J#
0H#
07#
0C#
1B#
#178
0P#
0V#
1Q#
#179
1S#
#180
b1101100 J#
17#
1C#
#181
1P#
1X#
1V#
#182
0S#
1W#
0U#
#183
b10010 J#
07#
0C#
18#
1A#
0B#
#184
0P#
0V#
1R#
0Q#
0X#
#185
1S#
#186
b1111110 J#
17#
1C#
#187
1P#
1V#
#188
0S#
1U#
#189
b10010 J#
07#
0C#
1B#
#190
b10011 J#
0P#
0V#
1Q#
19#
#191
1S#
#192
b1111111 J#
17#
1C#
#193
1P#
1X#
1V#
#194
0S#
0W#
0U#
#195
b1 J#
07#
0C#
08#
0A#
0B#
#196
b10000000 J#
0P#
0V#
0R#
0Q#
0X#
16#
09#
#197
b1111111 L#
1S#
#198
b11101100 J#
18
1\
1h
0""
1:"
0F"
1^"
1j"
1v"
0$#
07
1g
1-"
19"
1]"
1u"
1##
1-#
1H#
17#
1C#
b111100 (
b111001001110111 $
b111001001110111 *
b111001001110111 /
b1111011111100101 #
b1111011111100101 )
b1111011111100101 .
1&
#199
b1000010110010010 -
b1000010110010010 2
b1000010110010010 5#
b0 J#
1Z
1~
1%"
1$"
1D"
1H"
0h"
0l"
0j
1,"
0/"
0<"
0`"
0x"
0,#
00#
0G#
07#
0C#
1P#
1V#
06#
b111101 (
