waveforms/register_tb.vcd
$date
	Thu Feb 12 22:37:32 2026
$end
$version
	Icarus Verilog
$end
$timescale
	1ns
$end
$scope module register_tb $end
$var wire 16 ! out [15:0] $end
$var parameter 32 " N $end
$var reg 1 # clk $end
$var reg 16 $ in [15:0] $end
$scope module dut $end
$var wire 1 # clk $end
$var wire 16 % in [15:0] $end
$var parameter 32 & N $end
$var reg 16 ' out [15:0] $end
$upscope $end
$upscope $end
$enddefinitions $end
$comment Show the parameter values. $end
$dumpall
b10000 &
b10000 "
$end
#0
$dumpvars
bx '
b11010100100100 %
b11010100100100 $
1#
bx !
$end
#8
b101111010000001 $
b101111010000001 %
#16
b1101011000001001 $
b1101011000001001 %
#17
0#
#24
b101011001100011 $
b101011001100011 %
#32
b111101100001101 $
b111101100001101 %
#34
b111101100001101 !
b111101100001101 '
1#
#40
b1001100110001101 $
b1001100110001101 %
#48
b1000010001100101 $
b1000010001100101 %
#51
0#
#56
b101001000010010 $
b101001000010010 %
#64
b1110001100000001 $
b1110001100000001 %
#68
b1110001100000001 !
b1110001100000001 '
1#
#72
b1100110100001101 $
b1100110100001101 %
#80
b1111000101110110 $
b1111000101110110 %
#85
0#
#88
b1100110100111101 $
b1100110100111101 %
#96
b101011111101101 $
b101011111101101 %
#102
b101011111101101 !
b101011111101101 '
1#
#104
b1111011110001100 $
b1111011110001100 %
#112
b1110100111111001 $
b1110100111111001 %
#119
0#
#120
b10010011000110 $
b10010011000110 %
#128
b1000010011000101 $
b1000010011000101 %
#136
b1101001010101010 !
b1101001010101010 '
b1101001010101010 $
b1101001010101010 %
1#
#144
b1111011111100101 $
b1111011111100101 %
#152
b111001001110111 $
b111001001110111 %
#153
0#
#160
b1101011000010010 $
b1101011000010010 %
#168
b1101101110001111 $
b1101101110001111 %
#170
b1101101110001111 !
b1101101110001111 '
1#
#176
b110100111110010 $
b110100111110010 %
#184
b1001011011001110 $
b1001011011001110 %
#187
0#
#192
b111101011101000 $
b111101011101000 %
#200
b100111011000101 $
b100111011000101 %
#204
b100111011000101 !
b100111011000101 '
1#
#208
b100100101011100 $
b100100101011100 %
#216
b10100010111101 $
b10100010111101 %
#221
0#
#224
b101100000101101 $
b101100000101101 %
#232
b10011001100101 $
b10011001100101 %
#238
b10011001100101 !
b10011001100101 '
1#
#240
b110001001100011 $
b110001001100011 %
#248
b1000011100001010 $
b1000011100001010 %
#255
0#
#256
b10001010000000 $
b10001010000000 %
#264
b10000100100000 $
b10000100100000 %
#272
b100010110101010 !
b100010110101010 '
b100010110101010 $
b100010110101010 %
1#
#280
b1100110010011101 $
b1100110010011101 %
#288
b11111010010110 $
b11111010010110 %
#289
0#
#296
b1011100000010011 $
b1011100000010011 %
#304
b11100000001101 $
b11100000001101 %
#306
b11100000001101 !
b11100000001101 '
1#
#312
b1101011001010011 $
b1101011001010011 %
#320
b1101110101101011 $
b1101110101101011 %
#323
0#
#328
b10101011010101 $
b10101011010101 %
#336
b100101000000010 $
b100101000000010 %
#340
b100101000000010 !
b100101000000010 '
1#
#344
b11111010101110 $
b11111010101110 %
#352
b1110100100011101 $
b1110100100011101 %
#357
0#
#360
b111001011001111 $
b111001011001111 %
#368
b100100100100011 $
b100100100100011 %
#374
b100100100100011 !
b100100100100011 '
1#
#376
b110010100001010 $
b110010100001010 %
#384
b101011001010 $
b101011001010 %
#391
0#
#392
b100110000111100 $
b100110000111100 %
#400
b1011110111110010 $
b1011110111110010 %
#408
b110000110001010 !
b110000110001010 '
b110000110001010 $
b110000110001010 %
1#
#416
b1011001101000001 $
b1011001101000001 %
#424
b11010011011000 $
b11010011011000 %
#425
0#
#432
b1111001101111000 $
b1111001101111000 %
#440
b1001010001001 $
b1001010001001 %
#442
b1001010001001 !
b1001010001001 '
1#
#448
b110111101011 $
b110111101011 %
#456
b110010110110110 $
b110010110110110 %
#459
0#
#464
b1111100111000110 $
b1111100111000110 %
#472
b1001110101110 $
b1001110101110 %
#476
b1001110101110 !
b1001110101110 '
1#
#480
b1010111100 $
b1010111100 %
#488
b1101110100101010 $
b1101110100101010 %
#493
0#
#496
b1001101000001011 $
b1001101000001011 %
#504
b1011111001110001 $
b1011111001110001 %
#510
b1011111001110001 !
b1011111001110001 '
1#
#512
b100000110000101 $
b100000110000101 %
#520
b101010101001111 $
b101010101001111 %
#527
0#
#528
b110000000111011 $
b110000000111011 %
#536
b11001100111010 $
b11001100111010 %
#544
b11001001111110 !
b11001001111110 '
b11001001111110 $
b11001001111110 %
1#
#552
b100101100010101 $
b100101100010101 %
#560
b1001101111110001 $
b1001101111110001 %
#561
0#
#568
b100101111011001 $
b100101111011001 %
#576
b11101100010 $
b11101100010 %
#578
b11101100010 !
b11101100010 '
1#
#584
b1111101101001100 $
b1111101101001100 %
#592
b101010110011111 $
b101010110011111 %
#595
0#
#600
b1010000110001111 $
b1010000110001111 %
#608
b1010100111111000 $
b1010100111111000 %
#612
b1010100111111000 !
b1010100111111000 '
1#
#616
b110000010110111 $
b110000010110111 %
#624
b101011010011111 $
b101011010011111 %
#629
0#
#632
b1001010001011100 $
b1001010001011100 %
#640
b1100000001011011 $
b1100000001011011 %
#646
b1100000001011011 !
b1100000001011011 '
1#
#648
b11011110001001 $
b11011110001001 %
#656
b11001001001001 $
b11001001001001 %
#663
0#
#664
b11111011010000 $
b11111011010000 %
#672
b1100000011010111 $
b1100000011010111 %
#680
b1111110001010001 !
b1111110001010001 '
b1111110001010001 $
b1111110001010001 %
1#
#688
b10111110010110 $
b10111110010110 %
#696
b111111100001100 $
b111111100001100 %
#697
0#
#704
b1100111011000010 $
b1100111011000010 %
#712
b1110110111001000 $
b1110110111001000 %
#714
b1110110111001000 !
b1110110111001000 '
1#
#720
b101101001110111 $
b101101001110111 %
#728
b1110110100111101 $
b1110110100111101 %
#731
0#
#736
b1101101100010010 $
b1101101100010010 %
#744
b1111110 $
b1111110 %
#748
b1111110 !
b1111110 '
1#
#752
b1000000101101101 $
b1000000101101101 %
#760
b1110011100111001 $
b1110011100111001 %
#765
0#
#768
b1000111100011111 $
b1000111100011111 %
#776
b1111011011010011 $
b1111011011010011 %
#782
b1111011011010011 !
b1111011011010011 '
1#
#784
b10111110000101 $
b10111110000101 %
#792
b1000100001111000 $
b1000100001111000 %
#799
0#
#800
b101100101011011 $
b101100101011011 %
#808
b100101101001001 $
b100101101001001 %
#816
b1010111000111111 !
b1010111000111111 '
b1010111000111111 $
b1010111000111111 %
1#
#824
b1010111100101010 $
b1010111100101010 %
#832
b110001101011000 $
b110001101011000 %
#833
0#
#840
b11100010000110 $
b11100010000110 %
#848
b110010001110 $
b110010001110 %
#850
b110010001110 !
b110010001110 '
1#
#856
b1111001010011100 $
b1111001010011100 %
#864
b1001100111111010 $
b1001100111111010 %
#867
0#
#872
b1011110000100110 $
b1011110000100110 %
#880
b1011101110011 $
b1011101110011 %
#884
b1011101110011 !
b1011101110011 '
1#
#888
b1011010010100011 $
b1011010010100011 %
#896
b1010100000101111 $
b1010100000101111 %
#901
0#
#904
b1001001010110011 $
b1001001010110011 %
#912
b101011001011111 $
b101011001011111 %
#918
b101011001011111 !
b101011001011111 '
1#
#920
b110101000100 $
b110101000100 %
#928
b1111110111110111 $
b1111110111110111 %
#935
0#
#936
b11011011001011 $
b11011011001011 %
#944
b1101011100110 $
b1101011100110 %
#952
b1101101101011010 !
b1101101101011010 '
b1101101101011010 $
b1101101101011010 %
1#
#960
b1100000100101001 $
b1100000100101001 %
#968
b1110001011101101 $
b1110001011101101 %
#969
0#
#976
b110110011011010 $
b110110011011010 %
#984
b1011011001100101 $
b1011011001100101 %
#986
b1011011001100101 !
b1011011001100101 '
1#
#992
b1110001010110101 $
b1110001010110101 %
#1000
b1001010011011111 $
b1001010011011111 %
#1003
0#
#1008
b1100101111001 $
b1100101111001 %
#1016
b1111111101000100 $
b1111111101000100 %
#1020
b1111111101000100 !
b1111111101000100 '
1#
#1024
b110011010000 $
b110011010000 %
#1032
b101100101010 $
b101100101010 %
#1037
0#
#1040
b1010110110101011 $
b1010110110101011 %
#1048
b1100111100001110 $
b1100111100001110 %
#1054
b1100111100001110 !
b1100111100001110 '
1#
#1056
b1010110111011100 $
b1010110111011100 %
#1064
b1011110010011010 $
b1011110010011010 %
#1071
0#
#1072
b111001011111101 $
b111001011111101 %
#1080
b1011000011 $
b1011000011 %
#1088
b1110110101010110 !
b1110110101010110 '
b1110110101010110 $
b1110110101010110 %
1#
#1096
b1110100101001110 $
b1110100101001110 %
#1104
b111011001100111 $
b111011001100111 %
#1105
0#
#1112
b11010000001010 $
b11010000001010 %
#1120
b1011100110110110 $
b1011100110110110 %
#1122
b1011100110110110 !
b1011100110110110 '
1#
#1128
b1000101000111000 $
b1000101000111000 %
#1136
b1000011101111001 $
b1000011101111001 %
#1139
0#
#1144
b1100010010111000 $
b1100010010111000 %
#1152
b1011111110010100 $
b1011111110010100 %
#1156
b1011111110010100 !
b1011111110010100 '
1#
#1160
b101110110010011 $
b101110110010011 %
#1168
b10110000000100 $
b10110000000100 %
#1173
0#
#1176
b1100101001011001 $
b1100101001011001 %
#1184
b110100111011011 $
b110100111011011 %
#1190
b110100111011011 !
b110100111011011 '
1#
#1192
b1101111001001101 $
b1101111001001101 %
#1200
b1011011111011001 $
b1011011111011001 %
#1207
0#
#1208
b10011001101101 $
b10011001101101 %
#1216
b1110001001110110 $
b1110001001110110 %
#1224
b100100111001010 !
b100100111001010 '
b100100111001010 $
b100100111001010 %
1#
#1232
b10110110110110 $
b10110110110110 %
#1240
b111000110010101 $
b111000110010101 %
#1241
0#
#1248
b1101001000110 $
b1101001000110 %
#1256
b1001101100000100 $
b1001101100000100 %
#1258
b1001101100000100 !
b1001101100000100 '
1#
#1264
b110000111110111 $
b110000111110111 %
#1272
b11101101001 $
b11101101001 %
#1275
0#
#1280
b1011101010110100 $
b1011101010110100 %
#1288
b1000110110001000 $
b1000110110001000 %
#1292
b1000110110001000 !
b1000110110001000 '
1#
#1296
b1101100100101000 $
b1101100100101000 %
#1304
b10000101101 $
b10000101101 %
#1309
0#
#1312
b11000011000111 $
b11000011000111 %
#1320
b1001110000101110 $
b1001110000101110 %
#1326
b1001110000101110 !
b1001110000101110 '
1#
#1328
b1110010000001000 $
b1110010000001000 %
#1336
b100010100011100 $
b100010100011100 %
#1343
0#
#1344
b1010011011111101 $
b1010011011111101 %
#1352
b11100101001 $
b11100101001 %
#1360
b1001000000011100 !
b1001000000011100 '
b1001000000011100 $
b1001000000011100 %
1#
#1368
b110011110000110 $
b110011110000110 %
#1376
b100011011010 $
b100011011010 %
#1377
0#
#1384
b1100011000111101 $
b1100011000111101 %
#1392
b1010011101100110 $
b1010011101100110 %
#1394
b1010011101100110 !
b1010011101100110 '
1#
#1400
b1100010001110000 $
b1100010001110000 %
#1408
b10001110011 $
b10001110011 %
#1411
0#
#1416
b1001100110111010 $
b1001100110111010 %
#1424
b1011001101011110 $
b1011001101011110 %
#1428
b1011001101011110 !
b1011001101011110 '
1#
#1432
b111100111111010 $
b111100111111010 %
#1440
b10111010101 $
b10111010101 %
#1445
0#
#1448
b1111011000011010 $
b1111011000011010 %
#1456
b10111001 $
b10111001 %
#1462
b10111001 !
b10111001 '
1#
#1464
b110000100110111 $
b110000100110111 %
#1472
b11011110010110 $
b11011110010110 %
#1479
0#
#1480
b10000111000000 $
b10000111000000 %
#1488
b1001111100100110 $
b1001111100100110 %
#1496
b1101010110110 !
b1101010110110 '
b1101010110110 $
b1101010110110 %
1#
#1504
b1000001101111101 $
b1000001101111101 %
#1512
b111111011100 $
b111111011100 %
#1513
0#
#1520
b101011110000110 $
b101011110000110 %
#1528
b1111111101111000 $
b1111111101111000 %
#1530
b1111111101111000 !
b1111111101111000 '
1#
#1536
b1001101101111110 $
b1001101101111110 %
#1544
b1000000011011011 $
b1000000011011011 %
#1547
0#
#1552
b1011011011001111 $
b1011011011001111 %
#1560
b10101101111001 $
b10101101111001 %
#1564
b10101101111001 !
b10101101111001 '
1#
#1568
b1110010011111010 $
b1110010011111010 %
#1576
b1110111001100001 $
b1110111001100001 %
#1581
0#
#1584
b100100010111 $
b100100010111 %
#1592
b111100010100001 $
b111100010100001 %
#1598
b111100010100001 !
b111100010100001 '
1#
#1600
b1001000110000110 $
b1001000110000110 %
#1608
b1001011001010000 $
b1001011001010000 %
#1615
0#
#1616
b101100111110101 $
b101100111110101 %
#1624
b1000100000110101 $
b1000100000110101 %
#1632
b1000101000101001 !
b1000101000101001 '
b1000101000101001 $
b1000101000101001 %
1#
#1640
b111010111000001 $
b111010111000001 %
#1648
b111010011000101 $
b111010011000101 %
#1649
0#
#1656
b1011010010011000 $
b1011010010011000 %
#1664
b111101101001011 $
b111101101001011 %
#1666
b111101101001011 !
b111101101001011 '
1#
#1672
b100001001110011 $
b100001001110011 %
#1680
b1110011011101100 $
b1110011011101100 %
#1683
0#
#1688
b1011010001010 $
b1011010001010 %
#1696
b1101000101001110 $
b1101000101001110 %
#1700
b1101000101001110 !
b1101000101001110 '
1#
#1704
b1000000010101000 $
b1000000010101000 %
#1712
b1111110110101001 $
b1111110110101001 %
#1717
0#
#1720
b1000110010100001 $
b1000110010100001 %
#1728
b1011100100001110 $
b1011100100001110 %
#1734
b1011100100001110 !
b1011100100001110 '
1#
#1736
b110011011100110 $
b110011011100110 %
#1744
b1100000010011111 $
b1100000010011111 %
#1751
0#
#1752
b1011010100101010 $
b1011010100101010 %
#1760
b1110100101010 $
b1110100101010 %
#1768
b1111010010001101 !
b1111010010001101 '
b1111010010001101 $
b1111010010001101 %
1#
#1776
b1111111110011110 $
b1111111110011110 %
#1784
b1110011000111000 $
b1110011000111000 %
#1785
0#
#1792
b1010100001111001 $
b1010100001111001 %
#1800
b1110001111001000 $
b1110001111001000 %
#1802
b1110001111001000 !
b1110001111001000 '
1#
#1808
b100010111001010 $
b100010111001010 %
#1816
b100000100010011 $
b100000100010011 %
#1819
0#
#1824
b1100100101101011 $
b1100100101101011 %
#1832
b1010111011000111 $
b1010111011000111 %
#1836
b1010111011000111 !
b1010111011000111 '
1#
#1840
b1101110110110110 $
b1101110110110110 %
#1848
b1001110110111010 $
b1001110110111010 %
#1853
0#
#1856
b1010101111000100 $
b1010101111000100 %
#1864
b1001010110111001 $
b1001010110111001 %
#1870
b1001010110111001 !
b1001010110111001 '
1#
#1872
b1101001110010010 $
b1101001110010010 %
#1880
b1001101010110100 $
b1001101010110100 %
#1887
0#
#1888
b11101101111111 $
b11101101111111 %
#1896
b1001000010000110 $
b1001000010000110 %
#1904
b1111010111111010 !
b1111010111111010 '
b1111010111111010 $
b1111010111111010 %
1#
#1912
b1001010011110010 $
b1001010011110010 %
#1920
b10000100110010 $
b10000100110010 %
#1921
0#
#1928
b101111010111101 $
b101111010111101 %
#1936
b1100110110000100 $
b1100110110000100 %
#1938
b1100110110000100 !
b1100110110000100 '
1#
#1944
b1010010011100100 $
b1010010011100100 %
#1952
b1100111111001010 $
b1100111111001010 %
#1955
0#
#1960
b111100110101001 $
b111100110101001 %
#1968
b1010100010100001 $
b1010100010100001 %
#1972
b1010100010100001 !
b1010100010100001 '
1#
#1976
b1010100110001110 $
b1010100110001110 %
#1984
b110101011111011 $
b110101011111011 %
#1989
0#
#1992
b1111000001011 $
b1111000001011 %
#2000
b1001000011101111 $
b1001000011101111 %
#2006
b1001000011101111 !
b1001000011101111 '
1#
#2008
b11110111001001 $
b11110111001001 %
#2016
b1110010100110110 $
b1110010100110110 %
#2023
0#
#2024
b100100001110101 $
b100100001110101 %
#2032
b101011010001111 $
b101011010001111 %
#2040
b1011111101101011 !
b1011111101101011 '
b1011111101101011 $
b1011111101101011 %
1#
#2048
b1110011110001000 $
b1110011110001000 %
#2056
b1011010010101110 $
b1011010010101110 %
#2057
0#
#2064
b1000000110011011 $
b1000000110011011 %
#2072
b100010110010010 $
b100010110010010 %
#2074
b100010110010010 !
b100010110010010 '
1#
#2080
b1101111100101000 $
b1101111100101000 %
#2088
b1110000000101101 $
b1110000000101101 %
#2091
0#
#2096
b101111101001011 $
b101111101001011 %
#2104
b1011000011000010 $
b1011000011000010 %
#2108
b1011000011000010 !
b1011000011000010 '
1#
#2112
b1111011000011110 $
b1111011000011110 %
#2120
b10100001101 $
b10100001101 %
#2125
0#
#2128
b1111110111101100 $
b1111110111101100 %
#2136
b1001110100011000 $
b1001110100011000 %
#2142
b1001110100011000 !
b1001110100011000 '
1#
#2144
b1101111010001 $
b1101111010001 %
#2152
b1110010000110 $
b1110010000110 %
#2159
0#
#2160
b10010001000001 $
b10010001000001 %
#2168
b110010000111011 $
b110010000111011 %
#2176
b1111100111011000 !
b1111100111011000 '
b1111100111011000 $
b1111100111011000 %
1#
#2184
b1110100101010011 $
b1110100101010011 %
#2192
b110001001010110 $
b110001001010110 %
#2193
0#
#2200
b10001001011011 $
b10001001011011 %
#2208
b1111101011100010 $
b1111101011100010 %
#2210
b1111101011100010 !
b1111101011100010 '
1#
#2216
b1110001000000100 $
b1110001000000100 %
#2224
b1101110011 $
b1101110011 %
#2227
0#
#2232
b1011010011011000 $
b1011010011011000 %
#2240
b100110100010010 $
b100110100010010 %
#2244
b100110100010010 !
b100110100010010 '
1#
#2248
b100010010111000 $
b100010010111000 %
#2256
b1001000111001 $
b1001000111001 %
#2261
0#
#2264
b1011011011100101 $
b1011011011100101 %
#2272
b1101110010100001 $
b1101110010100001 %
#2278
b1101110010100001 !
b1101110010100001 '
1#
#2280
b111100101011 $
b111100101011 %
#2288
b101110110000001 $
b101110110000001 %
#2295
0#
#2296
b1000010111001000 $
b1000010111001000 %
#2304
b101010100100111 $
b101010100100111 %
#2312
b1111100110100001 !
b1111100110100001 '
b1111100110100001 $
b1111100110100001 %
1#
#2320
b110111000011111 $
b110111000011111 %
#2328
b11101000000100 $
b11101000000100 %
#2329
0#
#2336
b10001101011000 $
b10001101011000 %
#2344
b1000000010010110 $
b1000000010010110 %
#2346
b1000000010010110 !
b1000000010010110 '
1#
#2352
b1001001100010100 $
b1001001100010100 %
#2360
b1011010000010010 $
b1011010000010010 %
#2363
0#
#2368
b111000010010110 $
b111000010010110 %
#2376
b1110001010110001 $
b1110001010110001 %
#2380
b1110001010110001 !
b1110001010110001 '
1#
#2384
b1101010101010101 $
b1101010101010101 %
#2392
b1000111011101101 $
b1000111011101101 %
#2397
0#
#2400
b10101100101011 $
b10101100101011 %
#2408
b1101111110101 $
b1101111110101 %
#2414
b1101111110101 !
b1101111110101 '
1#
#2416
b1110101101 $
b1110101101 %
#2424
b10001000100111 $
b10001000100111 %
#2431
0#
#2432
b1111111110000100 $
b1111111110000100 %
#2440
b1110010010100111 $
b1110010010100111 %
#2448
b1010011011100111 !
b1010011011100111 '
b1010011011100111 $
b1010011011100111 %
1#
#2456
b1001000010111001 $
b1001000010111001 %
#2464
b101011001001001 $
b101011001001001 %
#2465
0#
#2472
b1011101111011011 $
b1011101111011011 %
#2480
b111111001001 $
b111111001001 %
#2482
b111111001001 !
b111111001001 '
1#
#2488
b1011000101010001 $
b1011000101010001 %
#2496
b101111010100001 $
b101111010100001 %
#2499
0#
#2504
b1101110100101010 $
b1101110100101010 %
#2512
b100010111111010 $
b100010111111010 %
#2516
b100010111111010 !
b100010111111010 '
1#
#2520
b10000001000101 $
b10000001000101 %
#2528
b10110000011 $
b10110000011 %
#2533
0#
#2536
b100001001111100 $
b100001001111100 %
#2544
b1010001110010 $
b1010001110010 %
#2550
b1010001110010 !
b1010001110010 '
1#
#2552
b11110011111110 $
b11110011111110 %
#2560
b1111001001101000 $
b1111001001101000 %
#2567
0#
#2568
b1010101001101111 $
b1010101001101111 %
#2576
b110110000110 $
b110110000110 %
#2584
b10000111110000 !
b10000111110000 '
b10000111110000 $
b10000111110000 %
1#
#2592
b1001011100111000 $
b1001011100111000 %
#2600
b1001000101000000 $
b1001000101000000 %
#2601
0#
#2608
b111011000101000 $
b111011000101000 %
#2616
b1010100111110110 $
b1010100111110110 %
#2618
b1010100111110110 !
b1010100111110110 '
1#
#2624
b1101011000101 $
b1101011000101 %
#2632
b11000111000000 $
b11000111000000 %
#2635
0#
#2640
b101111101110100 $
b101111101110100 %
#2648
b111000100111001 $
b111000100111001 %
#2652
b111000100111001 !
b111000100111001 '
1#
#2656
b110101010110000 $
b110101010110000 %
#2664
b1000011100111100 $
b1000011100111100 %
#2669
0#
#2672
b1001001100101010 $
b1001001100101010 %
#2680
b1101001101100010 $
b1101001101100010 %
#2686
b1101001101100010 !
b1101001101100010 '
1#
#2688
b11010100010101 $
b11010100010101 %
#2696
b100111011100001 $
b100111011100001 %
#2703
0#
#2704
b1001110100010111 $
b1001110100010111 %
#2712
b1110111001000011 $
b1110111001000011 %
#2720
b1110001111001001 !
b1110001111001001 '
b1110001111001001 $
b1110001111001001 %
1#
#2728
b10010000110 $
b10010000110 %
#2736
b1100101100100101 $
b1100101100100101 %
#2737
0#
#2744
b1001110111000001 $
b1001110111000001 %
#2752
b1010001010001101 $
b1010001010001101 %
#2754
b1010001010001101 !
b1010001010001101 '
1#
#2760
b1110001001011010 $
b1110001001011010 %
#2768
b10011100000111 $
b10011100000111 %
#2771
0#
#2776
b111101100101100 $
b111101100101100 %
#2784
b101110100001100 $
b101110100001100 %
#2788
b101110100001100 !
b101110100001100 '
1#
#2792
b1110011001110001 $
b1110011001110001 %
#2800
b111110000111011 $
b111110000111011 %
#2805
0#
#2808
b1110010110110110 $
b1110010110110110 %
#2816
b1100001011110111 $
b1100001011110111 %
#2822
b1100001011110111 !
b1100001011110111 '
1#
#2824
b1100111010011110 $
b1100111010011110 %
#2832
b101100001011100 $
b101100001011100 %
#2839
0#
#2840
b1111011101010101 $
b1111011101010101 %
#2848
b11101000100000 $
b11101000100000 %
#2856
b1001010100000 !
b1001010100000 '
b1001010100000 $
b1001010100000 %
1#
#2864
b100101110010 $
b100101110010 %
#2872
b1000110010110100 $
b1000110010110100 %
#2873
0#
#2880
b1111010111011101 $
b1111010111011101 %
#2888
b1111000000001101 $
b1111000000001101 %
#2890
b1111000000001101 !
b1111000000001101 '
1#
#2896
b1001100101001011 $
b1001100101001011 %
#2904
b100001001111001 $
b100001001111001 %
#2907
0#
#2912
b1101101010011110 $
b1101101010011110 %
#2920
b110010011111101 $
b110010011111101 %
#2924
b110010011111101 !
b110010011111101 '
1#
#2928
b1101001001111011 $
b1101001001111011 %
#2936
b111001110001111 $
b111001110001111 %
#2941
0#
#2944
b1001101000000011 $
b1001101000000011 %
#2952
b10100111100011 $
b10100111100011 %
#2958
b10100111100011 !
b10100111100011 '
1#
#2960
b100001100011101 $
b100001100011101 %
#2968
b11110110110001 $
b11110110110001 %
#2975
0#
#2976
b1001111101000100 $
b1001111101000100 %
#2984
b1011110010010101 $
b1011110010010101 %
#2992
b11010011100000 !
b11010011100000 '
b11010011100000 $
b11010011100000 %
1#
#3000
b111100011101101 $
b111100011101101 %
#3008
b1010101010010 $
b1010101010010 %
#3009
0#
#3016
b101101111111000 $
b101101111111000 %
#3024
b1011011110001101 $
b1011011110001101 %
#3026
b1011011110001101 !
b1011011110001101 '
1#
#3032
b1100010001010010 $
b1100010001010010 %
#3040
b1110011110000100 $
b1110011110000100 %
#3043
0#
#3048
b1111110101000110 $
b1111110101000110 %
#3056
b1001001010001100 $
b1001001010001100 %
#3060
b1001001010001100 !
b1001001010001100 '
1#
#3064
b111110110010000 $
b111110110010000 %
#3072
b1100000100010111 $
b1100000100010111 %
#3077
0#
#3080
b110000101101010 $
b110000101101010 %
#3088
b101011110000100 $
b101011110000100 %
#3094
b101011110000100 !
b101011110000100 '
1#
#3096
b1011110010101010 $
b1011110010101010 %
#3104
b111101111100 $
b111101111100 %
#3111
0#
#3112
b1001100000 $
b1001100000 %
#3120
b100110110111010 $
b100110110111010 %
#3128
b110000010001011 !
b110000010001011 '
b110000010001011 $
b110000010001011 %
1#
#3136
b1111111010100110 $
b1111111010100110 %
#3144
b1111000100101 $
b1111000100101 %
#3145
0#
#3152
b1000001100110010 $
b1000001100110010 %
#3160
b10010100010 $
b10010100010 %
#3162
b10010100010 !
b10010100010 '
1#
#3168
b111110001001001 $
b111110001001001 %
#3176
b1011000000010100 $
b1011000000010100 %
#3179
0#
#3184
b1100000000111101 $
b1100000000111101 %
#3192
b1101001011 $
b1101001011 %
#3196
b1101001011 !
b1101001011 '
1#
#3200
b11000001011100 $
b11000001011100 %
#3208
b111010101000111 $
b111010101000111 %
#3213
0#
#3216
b1001011110000110 $
b1001011110000110 %
#3224
b111101000111001 $
b111101000111001 %
#3230
b111101000111001 !
b111101000111001 '
1#
#3232
b1000101010110100 $
b1000101010110100 %
#3240
b1110010111010000 $
b1110010111010000 %
#3247
0#
#3248
b101000000101100 $
b101000000101100 %
#3256
b100010110001100 $
b100010110001100 %
#3264
b1011011100000111 !
b1011011100000111 '
b1011011100000111 $
b1011011100000111 %
1#
#3272
b100000001101010 $
b100000001101010 %
#3280
b1111100100010001 $
b1111100100010001 %
#3281
0#
#3288
b1111111111101000 $
b1111111111101000 %
#3296
b1001111001001011 $
b1001111001001011 %
#3298
b1001111001001011 !
b1001111001001011 '
1#
#3304
b1000000101110011 $
b1000000101110011 %
#3312
b101101111101100 $
b101101111101100 %
#3315
0#
#3320
b10100100011 $
b10100100011 %
#3328
b1110111110100100 $
b1110111110100100 %
#3332
b1110111110100100 !
b1110111110100100 '
1#
#3336
b110010111001001 $
b110010111001001 %
#3344
b10000111001 $
b10000111001 %
#3349
0#
#3352
b111001011011111 $
b111001011011111 %
#3360
b1010011010100 $
b1010011010100 %
#3366
b1010011010100 !
b1010011010100 '
1#
#3368
b110010101100111 $
b110010101100111 %
#3376
b100000110011101 $
b100000110011101 %
#3383
0#
#3384
b10010110110000 $
b10010110110000 %
#3392
b11100110000010 $
b11100110000010 %
#3400
b1011111101001001 !
b1011111101001001 '
b1011111101001001 $
b1011111101001001 %
1#
#3408
b1101011011001 $
b1101011011001 %
#3416
b1011011100100000 $
b1011011100100000 %
#3417
0#
#3424
b100110000011100 $
b100110000011100 %
#3432
b110111110010011 $
b110111110010011 %
#3434
b110111110010011 !
b110111110010011 '
1#
#3440
b110000111100011 $
b110000111100011 %
#3448
b1000001000101010 $
b1000001000101010 %
#3451
0#
#3456
b1111100011001000 $
b1111100011001000 %
#3464
b10111001011101 $
b10111001011101 %
#3468
b10111001011101 !
b10111001011101 '
1#
#3472
b1001110100111010 $
b1001110100111010 %
#3480
b1010100110000100 $
b1010100110000100 %
#3485
0#
#3488
b1010100000101011 $
b1010100000101011 %
#3496
b111111100111001 $
b111111100111001 %
#3502
b111111100111001 !
b111111100111001 '
1#
#3504
b1110000010010 $
b1110000010010 %
#3512
b1010010 $
b1010010 %
#3519
0#
#3520
b1000100101011001 $
b1000100101011001 %
#3528
b1001011011010000 $
b1001011011010000 %
#3536
b1110101001101110 !
b1110101001101110 '
b1110101001101110 $
b1110101001101110 %
1#
#3544
b10100110010111 $
b10100110010111 %
#3552
b1000011111011011 $
b1000011111011011 %
#3553
0#
#3560
b111011110100110 $
b111011110100110 %
#3568
b1101001110111011 $
b1101001110111011 %
#3570
b1101001110111011 !
b1101001110111011 '
1#
#3576
b111110000000000 $
b111110000000000 %
#3584
b100110000001111 $
b100110000001111 %
#3587
0#
#3592
b1101011001101001 $
b1101011001101001 %
#3600
b110001000001100 $
b110001000001100 %
#3604
b110001000001100 !
b110001000001100 '
1#
#3608
b1100101011001 $
b1100101011001 %
#3616
b100100111000101 $
b100100111000101 %
#3621
0#
#3624
b11010111001111 $
b11010111001111 %
#3632
b1110010110010000 $
b1110010110010000 %
#3638
b1110010110010000 !
b1110010110010000 '
1#
#3640
b1101100001010001 $
b1101100001010001 %
#3648
b1010010001101001 $
b1010010001101001 %
#3655
0#
#3656
b1100110101110111 $
b1100110101110111 %
#3664
b110010101001010 $
b110010101001010 %
#3672
b101100011011000 !
b101100011011000 '
b101100011011000 $
b101100011011000 %
1#
#3680
b100110110011011 $
b100110110011011 %
#3688
b1001101011000100 $
b1001101011000100 %
#3689
0#
#3696
b1011000110111000 $
b1011000110111000 %
#3704
b1111001010110111 $
b1111001010110111 %
#3706
b1111001010110111 !
b1111001010110111 '
1#
#3712
b1110111010000110 $
b1110111010000110 %
#3720
b101101000110000 $
b101101000110000 %
#3723
0#
#3728
b101001101110111 $
b101001101110111 %
#3736
b1100011110110101 $
b1100011110110101 %
#3740
b1100011110110101 !
b1100011110110101 '
1#
#3744
b1111010111010100 $
b1111010111010100 %
#3752
b1000011100000111 $
b1000011100000111 %
#3757
0#
#3760
b1001011101110110 $
b1001011101110110 %
#3768
b1010110111101001 $
b1010110111101001 %
#3774
b1010110111101001 !
b1010110111101001 '
1#
#3776
b1000101110001011 $
b1000101110001011 %
#3784
b101111100000001 $
b101111100000001 %
#3791
0#
#3792
b1000101111011011 $
b1000101111011011 %
#3800
b100001010000000 $
b100001010000000 %
#3808
b1001111111000010 !
b1001111111000010 '
b1001111111000010 $
b1001111111000010 %
1#
#3816
b1101101011000101 $
b1101101011000101 %
#3824
b1111101000110000 $
b1111101000110000 %
#3825
0#
#3832
b1110010010101111 $
b1110010010101111 %
#3840
b1101101001100110 $
b1101101001100110 %
#3842
b1101101001100110 !
b1101101001100110 '
1#
#3848
b1011100110101111 $
b1011100110101111 %
#3856
b110111011101001 $
b110111011101001 %
#3859
0#
#3864
b1010111111111000 $
b1010111111111000 %
#3872
b1010110000000110 $
b1010110000000110 %
#3876
b1010110000000110 !
b1010110000000110 '
1#
#3880
b111011011101111 $
b111011011101111 %
#3888
b11011111100001 $
b11011111100001 %
#3893
0#
#3896
b111110010010101 $
b111110010010101 %
#3904
b11111011101110 $
b11111011101110 %
#3910
b11111011101110 !
b11111011101110 '
1#
